^C:\USERS\TAL\FINAL-PROJECT\SERVER\SERVER\DATABASE.CPP|C:\USERS\TAL\FINAL-PROJECT\SERVER\SERVER\GAME.CPP|C:\USERS\TAL\FINAL-PROJECT\SERVER\SERVER\HELPER.CPP|C:\USERS\TAL\FINAL-PROJECT\SERVER\SERVER\QUESTION.CPP|C:\USERS\TAL\FINAL-PROJECT\SERVER\SERVER\RECIEVEDMESSAGE.CPP|C:\USERS\TAL\FINAL-PROJECT\SERVER\SERVER\ROOM.CPP|C:\USERS\TAL\FINAL-PROJECT\SERVER\SERVER\SOURCE.CPP|C:\USERS\TAL\FINAL-PROJECT\SERVER\SERVER\TRIVIASERVER.CPP|C:\USERS\TAL\FINAL-PROJECT\SERVER\SERVER\USER.CPP|C:\USERS\TAL\FINAL-PROJECT\SERVER\SERVER\VALIDATOR.CPP|C:\USERS\TAL\FINAL-PROJECT\SERVER\SERVER\WSAINITIALIZER.CPP
C:\USERS\TAL\FINAL-PROJECT\SERVER\SERVER\DEBUG\VC141.PDB
C:\USERS\TAL\FINAL-PROJECT\SERVER\SERVER\DEBUG\VC141.IDB
C:\USERS\TAL\FINAL-PROJECT\SERVER\SERVER\DEBUG\WSAINITIALIZER.OBJ
C:\USERS\TAL\FINAL-PROJECT\SERVER\SERVER\DEBUG\VALIDATOR.OBJ
C:\USERS\TAL\FINAL-PROJECT\SERVER\SERVER\DEBUG\USER.OBJ
C:\USERS\TAL\FINAL-PROJECT\SERVER\SERVER\DEBUG\SOURCE.OBJ
C:\USERS\TAL\FINAL-PROJECT\SERVER\SERVER\DEBUG\ROOM.OBJ
C:\USERS\TAL\FINAL-PROJECT\SERVER\SERVER\DEBUG\RECIEVEDMESSAGE.OBJ
C:\USERS\TAL\FINAL-PROJECT\SERVER\SERVER\DEBUG\QUESTION.OBJ
C:\USERS\TAL\FINAL-PROJECT\SERVER\SERVER\DEBUG\HELPER.OBJ
C:\USERS\TAL\FINAL-PROJECT\SERVER\SERVER\DEBUG\GAME.OBJ
C:\USERS\TAL\FINAL-PROJECT\SERVER\SERVER\DEBUG\DATABASE.OBJ
^C:\USERS\TAL\FINAL-PROJECT\SERVER\SERVER\HELPER.CPP
C:\USERS\TAL\FINAL-PROJECT\SERVER\SERVER\DEBUG\HELPER.OBJ
^C:\USERS\TAL\FINAL-PROJECT\SERVER\SERVER\WSAINITIALIZER.CPP
C:\USERS\TAL\FINAL-PROJECT\SERVER\SERVER\DEBUG\WSAINITIALIZER.OBJ
^C:\USERS\TAL\FINAL-PROJECT\SERVER\SERVER\SOURCE.CPP|C:\USERS\TAL\FINAL-PROJECT\SERVER\SERVER\TRIVIASERVER.CPP|C:\USERS\TAL\FINAL-PROJECT\SERVER\SERVER\VALIDATOR.CPP
C:\USERS\TAL\FINAL-PROJECT\SERVER\SERVER\DEBUG\VC141.PDB
C:\USERS\TAL\FINAL-PROJECT\SERVER\SERVER\DEBUG\VC141.IDB
C:\USERS\TAL\FINAL-PROJECT\SERVER\SERVER\DEBUG\VALIDATOR.OBJ
C:\USERS\TAL\FINAL-PROJECT\SERVER\SERVER\DEBUG\TRIVIASERVER.OBJ
C:\USERS\TAL\FINAL-PROJECT\SERVER\SERVER\DEBUG\SOURCE.OBJ
^C:\USERS\TAL\FINAL-PROJECT\SERVER\SERVER\VALIDATOR.CPP
C:\USERS\TAL\FINAL-PROJECT\SERVER\SERVER\DEBUG\VC141.PDB
^C:\USERS\TAL\FINAL-PROJECT\SERVER\SERVER\SQLITE3.C
C:\USERS\TAL\FINAL-PROJECT\SERVER\SERVER\DEBUG\VC141.PDB
C:\USERS\TAL\FINAL-PROJECT\SERVER\SERVER\DEBUG\VC141.IDB
C:\USERS\TAL\FINAL-PROJECT\SERVER\SERVER\DEBUG\SQLITE3.OBJ
^C:\USERS\TAL\FINAL-PROJECT\SERVER\SERVER\DATABASE.CPP|C:\USERS\TAL\FINAL-PROJECT\SERVER\SERVER\GAME.CPP|C:\USERS\TAL\FINAL-PROJECT\SERVER\SERVER\QUESTION.CPP|C:\USERS\TAL\FINAL-PROJECT\SERVER\SERVER\RECIEVEDMESSAGE.CPP|C:\USERS\TAL\FINAL-PROJECT\SERVER\SERVER\ROOM.CPP|C:\USERS\TAL\FINAL-PROJECT\SERVER\SERVER\SOURCE.CPP|C:\USERS\TAL\FINAL-PROJECT\SERVER\SERVER\TRIVIASERVER.CPP|C:\USERS\TAL\FINAL-PROJECT\SERVER\SERVER\USER.CPP
C:\USERS\TAL\FINAL-PROJECT\SERVER\SERVER\DEBUG\VC141.PDB
C:\USERS\TAL\FINAL-PROJECT\SERVER\SERVER\DEBUG\VC141.IDB
C:\USERS\TAL\FINAL-PROJECT\SERVER\SERVER\DEBUG\TRIVIASERVER.OBJ
C:\USERS\TAL\FINAL-PROJECT\SERVER\SERVER\DEBUG\SOURCE.OBJ
C:\USERS\TAL\FINAL-PROJECT\SERVER\SERVER\DEBUG\ROOM.OBJ
C:\USERS\TAL\FINAL-PROJECT\SERVER\SERVER\DEBUG\RECIEVEDMESSAGE.OBJ
C:\USERS\TAL\FINAL-PROJECT\SERVER\SERVER\DEBUG\QUESTION.OBJ
C:\USERS\TAL\FINAL-PROJECT\SERVER\SERVER\DEBUG\GAME.OBJ
C:\USERS\TAL\FINAL-PROJECT\SERVER\SERVER\DEBUG\DATABASE.OBJ
^C:\USERS\TAL\FINAL-PROJECT\SERVER\SERVER\DATABASE.CPP
C:\USERS\TAL\FINAL-PROJECT\SERVER\SERVER\DEBUG\DATABASE.OBJ
^C:\USERS\TAL\FINAL-PROJECT\SERVER\SERVER\QUESTION.CPP
C:\USERS\TAL\FINAL-PROJECT\SERVER\SERVER\DEBUG\QUESTION.OBJ
^C:\USERS\TAL\FINAL-PROJECT\SERVER\SERVER\GAME.CPP|C:\USERS\TAL\FINAL-PROJECT\SERVER\SERVER\RECIEVEDMESSAGE.CPP|C:\USERS\TAL\FINAL-PROJECT\SERVER\SERVER\ROOM.CPP|C:\USERS\TAL\FINAL-PROJECT\SERVER\SERVER\SOURCE.CPP|C:\USERS\TAL\FINAL-PROJECT\SERVER\SERVER\TRIVIASERVER.CPP|C:\USERS\TAL\FINAL-PROJECT\SERVER\SERVER\USER.CPP
C:\USERS\TAL\FINAL-PROJECT\SERVER\SERVER\DEBUG\VC141.PDB
C:\USERS\TAL\FINAL-PROJECT\SERVER\SERVER\DEBUG\VC141.IDB
C:\USERS\TAL\FINAL-PROJECT\SERVER\SERVER\DEBUG\USER.OBJ
C:\USERS\TAL\FINAL-PROJECT\SERVER\SERVER\DEBUG\SOURCE.OBJ
C:\USERS\TAL\FINAL-PROJECT\SERVER\SERVER\DEBUG\ROOM.OBJ
C:\USERS\TAL\FINAL-PROJECT\SERVER\SERVER\DEBUG\RECIEVEDMESSAGE.OBJ
C:\USERS\TAL\FINAL-PROJECT\SERVER\SERVER\DEBUG\GAME.OBJ
^C:\USERS\TAL\FINAL-PROJECT\SERVER\SERVER\GAME.CPP
C:\USERS\TAL\FINAL-PROJECT\SERVER\SERVER\DEBUG\GAME.OBJ
^C:\USERS\TAL\FINAL-PROJECT\SERVER\SERVER\RECIEVEDMESSAGE.CPP
C:\USERS\TAL\FINAL-PROJECT\SERVER\SERVER\DEBUG\RECIEVEDMESSAGE.OBJ
^C:\USERS\TAL\FINAL-PROJECT\SERVER\SERVER\ROOM.CPP
C:\USERS\TAL\FINAL-PROJECT\SERVER\SERVER\DEBUG\ROOM.OBJ
^C:\USERS\TAL\FINAL-PROJECT\SERVER\SERVER\SOURCE.CPP
C:\USERS\TAL\FINAL-PROJECT\SERVER\SERVER\DEBUG\SOURCE.OBJ
^C:\USERS\TAL\FINAL-PROJECT\SERVER\SERVER\USER.CPP
C:\USERS\TAL\FINAL-PROJECT\SERVER\SERVER\DEBUG\VC141.PDB
C:\USERS\TAL\FINAL-PROJECT\SERVER\SERVER\DEBUG\VC141.IDB
C:\USERS\TAL\FINAL-PROJECT\SERVER\SERVER\DEBUG\USER.OBJ
^C:\USERS\TAL\FINAL-PROJECT\SERVER\SERVER\TRIVIASERVER.CPP
C:\USERS\TAL\FINAL-PROJECT\SERVER\SERVER\DEBUG\VC141.PDB
C:\USERS\TAL\FINAL-PROJECT\SERVER\SERVER\DEBUG\VC141.IDB
C:\USERS\TAL\FINAL-PROJECT\SERVER\SERVER\DEBUG\TRIVIASERVER.OBJ
